[
  {
    "title": "grid cheatsheet",
    "description": "very handy css grid cheatsheet",
    "href": "http://grid.malven.co/",
    "tags": ["web", "css", "cheatsheet", "dev"]
  },
  {
    "title": "flexbox cheatsheet",
    "href": "http://flexbox.malven.co/",
    "description": "very handy css flexbox cheatsheet",
    "tags": ["web", "dev", "css", "cheatsheet"]
  },
  {
    "title": "markdown + yaml cheatsheet",
    "description": "very handy css markdown cheatsheet",
    "href": "https://learn-the-web.algonquindesign.ca/topics/markdown-yaml-cheat-sheet/",
    "tags": ["web", "md", "yaml", "markdown", "cheatsheet", "dev"]
  },
  {
    "title": "numl",
    "href": "https://numl.design/",
    "description": "An open-source Library of Web Components and a Runtime CSS Framework for rapidly building UI that follows your Design System.",
    "tags": ["web", "design", "dev", "ui"]
  },
  {
    "title": "bundlephobia",
    "href": "https://bundlephobia.com/",
    "description": "find the cost of adding a npm package to your bundle",
    "tags": ["web", "dev", "npm"]
  },
  {
    "title": "heroicons",
    "href": "https://heroicons.com/",
    "description": "Beautiful hand-crafted SVG icons, by the makers of Tailwind CSS. Alternative to material.io",
    "tags": ["web", "dev", "design", "icons", "svg"]
  }
]
